{
  "type": "service_account",
  "project_id": "film-app-f61ea",
  "private_key_id": "76d4d49a58049f7dd369e922ebfd6e796a6a3e08",
  "private_key": "-----BEGIN PRIVATE KEY-----\nMIIEvAIBADANBgkqhkiG9w0BAQEFAASCBKYwggSiAgEAAoIBAQCykuVrS1WX830g\np+mwGQcpuJmsIuJB5Y3uyC4fRTMSexRAnfiNYbKoclAMagB5pVwGrD1a8Dl1vw1J\nmClCfzqK0ODm8Zs85nygftUVP7eHyrQ3iEGg7H4ZO/iIgGH9PvaQNWjFNGwRbC+S\nPR9J4FtI950v7GPilQ3u8IhWL1s0UCJW48ixXeGC2LXRAJC206ogQpHr7h7Ahtz1\nOLzALMYlds9XG95JXGn+KbeVnKd9iYeWDut7DlzjB19MKhX6yqJExHZvQ9u7dJze\nK1iZupkrHcd6HizB8RTaHMDBf2jJlOMz3ExaY68Mu1dWPSUHeRt2E3bK2NBZQ76D\n/o3348pLAgMBAAECggEAEPtwTu5Yov04apkdW65dpIWWM60TmFG02D74R+gETd8f\nk2+SehuO6n8Ihs2z4t2rbUUHBrVuuXhkUpniXp0L27S2lq/mY/nFY1v8dqtbEFJi\nJh/SofOroEm4Pn77EqLgvuEdaBeuqU+BDKa8aYGpHLzTmYGhFCS5sP318UBKq6RE\nIzxo1LNKNiR48bz5bH+mGPPGczgCWUjVHNc0tKFmpBJL1cbJv5nFzn7XYspL5KE/\nsQA5Y6IOSa5CJc9Enfh3WhfjLgXlY7MJPi7hknenFjc3yts+onswNIrq1kI8wSos\n65HaJbrcWumLBwHaiXaj0Ys6REYNkMf2GQ8PF+j9yQKBgQD5HGwOEVCve71ap7rX\nBMf1jaG/RGjfztbZzKXExasOz0qnreFvf90IiwtLhAuAa/aupC3gp2Y6Or8WBPhm\nvc6rXEGNljQiOUNGeJCjW8lpw6XJhENqwiTjJxGfzkrvcgxSaguk4FIlg2I2nLgY\niHmwTvfviTK+WVc1aJLq+DKPiQKBgQC3gxtefUwQeOXKbL3NL8s786xT8C8RVrmB\nQGzzrCGW6LXNFnEPvn0VkrhQhb18TWS/glfluKw5wJjM4TAQqIklhqPsMv32mo2i\nqge7KblXaqj5QRT2Inji6HTcWPcbfVNJrWvJHSgQOxV60hZkE1U2ciuTb2Sk+RA2\n1UIFf3kiMwKBgCiAHXVADW0qYgO+J1tT9KqQh06QcbiJaVbptb3DIWd7/jg6xd8Z\n27bK3GA/rJsJcoa8PJU8whsPeAe9cSFLFLG5gxLg68LwqmZnraRRhPKEE40qysct\nn0+rB2uC354EXcp8YT5CFjjxHmOgoTGj5pzqidbQ6IYYAly1jsVS6u15AoGAfP65\nQqf3inS+mB1vPnZiaMh1xYqglJ/MpOQcEfFZw69oPXQeuImYK3yPPJGL2kHg8Ky4\ncAlUjdXIfiyYD5CsMbo+pyCoaTMma/iCYZJu4sMMqxIQVAJw8qVBC+ExFzFK7LFJ\n7GeGpV+JJuo4RBwC+53SXo8OL2xSBfdGC/airI8CgYB4VfSY4mZSBi01T2+AWcNM\n5MTrKEgq0hoQ7IcTR1WYesfgQCn1GXYkUPcqxt8QEwu01WJxQGV+Y3JjLy6HRLUu\n86YfemrMMP394qGvrvXv+5uuj+XsgudUsoQiw81xAzaJbjhvjT5n1o0EmeihJmou\nWZ3UskTgBauTC2Bo/WJtGQ==\n-----END PRIVATE KEY-----\n",
  "client_email": "firebase-adminsdk-8zy7u@film-app-f61ea.iam.gserviceaccount.com",
  "client_id": "111269296024390370857",
  "auth_uri": "https://accounts.google.com/o/oauth2/auth",
  "token_uri": "https://oauth2.googleapis.com/token",
  "auth_provider_x509_cert_url": "https://www.googleapis.com/oauth2/v1/certs",
  "client_x509_cert_url": "https://www.googleapis.com/robot/v1/metadata/x509/firebase-adminsdk-8zy7u%40film-app-f61ea.iam.gserviceaccount.com",
  "universe_domain": "googleapis.com"
}
